{
    "fields": [
        {
            "name": "BEN_NIR_PSA",
            "description": "Identifiant anonyme du patient dans le SNIIRAM",
            "type": "string",
            "nomenclature": "-",
            "length": "17",
            "format": "default",
            "dateCreated": "",
            "dateDeleted": "",
            "dateMissing": [],
            "observation": "",
            "regle_gestion": "",
            "type_oracle": "string"
        },
        {
            "name": "BEN_RNG_GEM",
            "description": "rang de naissance du bénéficiaire",
            "type": "number",
            "nomenclature": "IR_BER_V",
            "length": "2",
            "format": "default",
            "dateCreated": "",
            "dateDeleted": "",
            "dateMissing": [],
            "observation": "",
            "regle_gestion": "La règle de calcul du rang du bénéficiaire dans le SNIIRAM est la suivante :\n- le rang de louvreur de droits est toujours égal à 1,\n- si un ayant droit a la même date de naissance que louvreur de droits, son rang est égal à 2,\n- un enfant né dune naissance unique a un rang égal à 1,\n- lorsquil y a des naissances multiples, chaque enfant est différencié par son rang (1 pour le 1er, 2 pour le second, ).",
            "type_oracle": "number"
        },
        {
            "name": "IMB_ALD_DTD",
            "description": "Date de début d'exonération du ticket modérateur attribuée par les services médicaux (ALD, AT, MP)",
            "type": "date",
            "nomenclature": "IR_DTE_V",
            "length": "8",
            "format": "default",
            "dateCreated": "",
            "dateDeleted": "",
            "dateMissing": [],
            "observation": "",
            "regle_gestion": "",
            "type_oracle": "date"
        },
        {
            "name": "IMB_ALD_DTF",
            "description": "Date de fin de l'exonération attribuée par les services médicaux (ALD, AT, MP)",
            "type": "date",
            "nomenclature": "IR_DTE_V",
            "length": "8",
            "format": "default",
            "dateCreated": "",
            "dateDeleted": "",
            "dateMissing": [],
            "observation": "",
            "regle_gestion": "",
            "type_oracle": "date"
        },
        {
            "name": "IMB_ALD_NUM",
            "description": "Numéro d'ALD",
            "type": "number",
            "nomenclature": "IR_ALD_V",
            "length": "2",
            "format": "default",
            "dateCreated": "",
            "dateDeleted": "",
            "dateMissing": [],
            "observation": "",
            "regle_gestion": "",
            "type_oracle": "number"
        },
        {
            "name": "IMB_ETM_NAT",
            "description": "Motif d'exonération du bénéficiaire",
            "type": "number",
            "nomenclature": "IR_ETM_V",
            "length": "2",
            "format": "default",
            "dateCreated": "",
            "dateDeleted": "",
            "dateMissing": [],
            "observation": "",
            "regle_gestion": "",
            "type_oracle": "number"
        },
        {
            "name": "IMB_MLP_BTR",
            "description": "Tableau des maladies professionnelles (bis, ter)",
            "type": "string",
            "nomenclature": "-",
            "length": "1",
            "format": "default",
            "dateCreated": "",
            "dateDeleted": "",
            "dateMissing": [],
            "observation": "",
            "regle_gestion": "",
            "type_oracle": "string"
        },
        {
            "name": "IMB_MLP_TAB",
            "description": "Numéro de tableau des maladies professionnelles (MP)",
            "type": "string",
            "nomenclature": "AT_MLP_V",
            "length": "3",
            "format": "default",
            "dateCreated": "",
            "dateDeleted": "",
            "dateMissing": [],
            "observation": "",
            "regle_gestion": "",
            "type_oracle": "string"
        },
        {
            "name": "IMB_SDR_LOP",
            "description": "Localisation - paragraphe syndrome",
            "type": "string",
            "nomenclature": "-",
            "length": "1",
            "format": "default",
            "dateCreated": "",
            "dateDeleted": "",
            "dateMissing": [],
            "observation": "",
            "regle_gestion": "",
            "type_oracle": "string"
        },
        {
            "name": "INS_DTE",
            "description": "Date d'insertion",
            "type": "date",
            "nomenclature": "-",
            "length": "8",
            "format": "default",
            "dateCreated": "",
            "dateDeleted": "",
            "dateMissing": [],
            "observation": "",
            "regle_gestion": "",
            "type_oracle": "date"
        },
        {
            "name": "MED_MTF_COD",
            "description": "Motif médical ou pathologie (code CIM10)",
            "type": "string",
            "nomenclature": "IR_CIM_V",
            "length": "5",
            "format": "default",
            "dateCreated": "",
            "dateDeleted": "",
            "dateMissing": [],
            "observation": "",
            "regle_gestion": "",
            "type_oracle": "string"
        },
        {
            "name": "MED_NCL_IDT",
            "description": "Nomenclature médicale",
            "type": "string",
            "nomenclature": "IR_NMD_V",
            "length": "10",
            "format": "default",
            "dateCreated": "",
            "dateDeleted": "",
            "dateMissing": [],
            "observation": "",
            "regle_gestion": "",
            "type_oracle": "string"
        },
        {
            "name": "UPD_DTE",
            "description": "Date de la dernière sélection des bénéficiaires de l'EGB",
            "type": "date",
            "nomenclature": "-",
            "length": "8",
            "format": "default",
            "dateCreated": "",
            "dateDeleted": "",
            "dateMissing": [],
            "observation": "",
            "regle_gestion": "Dans la table IR_IMB_R, la variable UPD_DTE correspond à la date du dernier chargement.  Deux cas de figures :     1. Si création => nouvel enregistrement créé avec date d'insertion INS_DTE renseignée et date de mise à jour UPD_DTE manquante lors de la création initiale de l'enregistrement puis UPD_DTE renseignée à chaque nouveau chargement à l'identique (la date du dernier chargement écrase la précédente) ;     2. Si modification => insertion d'un nouvel enregistrement avec nouvelle date d'insertion INS_DTE et date de mise à jour UPD_DTE manquante à la création puis UPD_DTE renseignée à chaque nouveau chargement à l'identique.",
            "type_oracle": "date"
        }
    ],
    "name": "IR_IMB_R",
    "title": "Référentiel médicalisé des bénéficiaires (ALD)",
    "produit": "DCIR_DCIRS",
    "missingValues": [
        ""
    ],
    "foreignKeys": [
        {
            "fields": [
                "BEN_NIR_PSA",
                "BEN_RNG_GEM"
            ],
            "reference": {
                "resource": "IR_BEN_R",
                "fields": [
                    "BEN_NIR_PSA",
                    "BEN_RNG_GEM"
                ]
            }
        }
    ],
    "history": {
        "dateCreated": "",
        "dateDeleted": "",
        "dateMissing": []
    },
    "champ": "",
    "observation": ""
}