{
    "name": "EB_INV_F",
    "title": "Table des données de codage des invalidités",
    "produit": "EGB",
    "champ": "",
    "history": {
        "dateCreated": "",
        "dateDeleted": "",
        "dateMissing": []
    },
    "observation": "",
    "missingValues": [
        ""
    ],
    "fields": [
        {
            "name": "INV_ATR_DTD",
            "description": "Date d'attribution de la pension d'invalidité",
            "type": "date",
            "length": "8",
            "nomenclature": "IR_DTE_V",
            "dateCreated": "",
            "dateDeleted": "",
            "dateMissing": [],
            "format": "default",
            "regle_gestion": "",
            "observation": "",
            "type_oracle": "date"
        },
        {
            "name": "CLE_TEC_PRS",
            "description": "Clé technique Prestation",
            "type": "string",
            "length": "100",
            "nomenclature": "-",
            "dateCreated": "",
            "dateDeleted": "",
            "dateMissing": [],
            "format": "default",
            "regle_gestion": "",
            "observation": "",
            "type_oracle": "string"
        },
        {
            "name": "INV_PEN_CAT",
            "description": "Catégorie de la pension d'invalidité",
            "type": "number",
            "length": "2",
            "nomenclature": "IR_CIV_V",
            "dateCreated": "",
            "dateDeleted": "",
            "dateMissing": [],
            "format": "default",
            "regle_gestion": "",
            "observation": "",
            "type_oracle": "number"
        },
        {
            "name": "FLX_DIS_DTD",
            "description": "Date de mise à disposition des données",
            "type": "date",
            "length": "8",
            "nomenclature": "-",
            "dateCreated": "",
            "dateDeleted": "",
            "dateMissing": [],
            "format": "default",
            "regle_gestion": "",
            "observation": "",
            "type_oracle": "date"
        },
        {
            "name": "REM_TYP_AFF",
            "description": "type de remboursement affiné",
            "type": "number",
            "length": "8",
            "nomenclature": "-",
            "dateCreated": "",
            "dateDeleted": "",
            "dateMissing": [],
            "format": "default",
            "regle_gestion": "",
            "observation": "",
            "type_oracle": "number"
        },
        {
            "name": "ORG_CLE_NUM",
            "description": "organisme de liquidation des prestations (avant fusion des caisses)",
            "type": "string",
            "length": "9",
            "nomenclature": "IR_ORG_V",
            "dateCreated": "",
            "dateDeleted": "",
            "dateMissing": [],
            "format": "default",
            "regle_gestion": "",
            "observation": "",
            "type_oracle": "string"
        },
        {
            "name": "INV_PEN_ETA",
            "description": "Etat de la pension d'invalidité",
            "type": "number",
            "length": "2",
            "nomenclature": "IR_EIN_V",
            "dateCreated": "",
            "dateDeleted": "",
            "dateMissing": [],
            "format": "default",
            "regle_gestion": "",
            "observation": "",
            "type_oracle": "number"
        },
        {
            "name": "ORG_CLE_NEW",
            "description": "Code de l'organisme de liquidation",
            "type": "string",
            "length": "9",
            "nomenclature": "IR_ORG_V",
            "dateCreated": "",
            "dateDeleted": "",
            "dateMissing": [],
            "format": "default",
            "regle_gestion": "",
            "observation": "",
            "type_oracle": "string"
        },
        {
            "name": "FLX_TRT_DTD",
            "description": "Date d'entrée des données dans le système d'information",
            "type": "date",
            "length": "8",
            "nomenclature": "IR_DTE_V",
            "dateCreated": "",
            "dateDeleted": "",
            "dateMissing": [],
            "format": "default",
            "regle_gestion": "",
            "observation": "",
            "type_oracle": "date"
        },
        {
            "name": "FLX_EMT_NUM",
            "description": "numéro d'émetteur du flux",
            "type": "number",
            "length": "4",
            "nomenclature": "IR_NEM_T",
            "dateCreated": "",
            "dateDeleted": "",
            "dateMissing": [],
            "format": "default",
            "regle_gestion": "",
            "observation": "",
            "type_oracle": "number"
        },
        {
            "name": "DCT_ORD_NUM",
            "description": "numéro d'ordre du décompte dans l'organisme",
            "type": "number",
            "length": "9",
            "nomenclature": "-",
            "dateCreated": "",
            "dateDeleted": "",
            "dateMissing": [],
            "format": "default",
            "regle_gestion": "",
            "observation": "",
            "type_oracle": "number"
        },
        {
            "name": "PRS_ORD_NUM",
            "description": "Numéro d'ordre de la prestation dans le décompte",
            "type": "number",
            "length": "5",
            "nomenclature": "-",
            "dateCreated": "",
            "dateDeleted": "",
            "dateMissing": [],
            "format": "default",
            "regle_gestion": "",
            "observation": "",
            "type_oracle": "number"
        },
        {
            "name": "FLX_EMT_ORD",
            "description": "numéro de séquence du flux",
            "type": "number",
            "length": "4",
            "nomenclature": "-",
            "dateCreated": "",
            "dateDeleted": "",
            "dateMissing": [],
            "format": "default",
            "regle_gestion": "",
            "observation": "",
            "type_oracle": "number"
        },
        {
            "name": "FLX_EMT_TYP",
            "description": "Type d'émetteur",
            "type": "number",
            "length": "2",
            "nomenclature": "IR_TYT_V",
            "dateCreated": "",
            "dateDeleted": "",
            "dateMissing": [],
            "format": "default",
            "regle_gestion": "",
            "observation": "",
            "type_oracle": "number"
        }
    ]
}