{
    "fields": [
        {
            "name": "ETA_NUM",
            "description": "FINESS",
            "type": "string",
            "nomenclature": "-",
            "length": "9",
            "format": "default",
            "dateCreated": "2005",
            "dateDeleted": "",
            "dateMissing": [],
            "observation": "",
            "regle_gestion": "",
            "type_oracle": "string"
        },
        {
            "name": "RHA_VER",
            "description": "Version du Format du SRHA",
            "type": "string",
            "nomenclature": "-",
            "length": "3",
            "format": "default",
            "dateCreated": "2005",
            "dateDeleted": "",
            "dateMissing": [],
            "observation": "",
            "regle_gestion": "",
            "type_oracle": "string"
        },
        {
            "name": "GEN_VER",
            "description": "Version de GENRHA",
            "type": "string",
            "nomenclature": "-",
            "length": "3",
            "format": "default",
            "dateCreated": "2005",
            "dateDeleted": "",
            "dateMissing": [],
            "observation": "",
            "regle_gestion": "",
            "type_oracle": "string"
        },
        {
            "name": "RHA_NUM",
            "description": "N° Séquentiel du séjour",
            "type": "string",
            "nomenclature": "-",
            "length": "7",
            "format": "default",
            "dateCreated": "2005",
            "dateDeleted": "",
            "dateMissing": [],
            "observation": "",
            "regle_gestion": "",
            "type_oracle": "string"
        },
        {
            "name": "SUI_TYP",
            "description": "Type de suite",
            "type": "string",
            "nomenclature": "-",
            "length": "1",
            "format": "default",
            "dateCreated": "2005",
            "dateDeleted": "",
            "dateMissing": [],
            "observation": "",
            "regle_gestion": "",
            "type_oracle": "string"
        },
        {
            "name": "SEJ_NBJ",
            "description": "Durée du séjour",
            "type": "number",
            "nomenclature": "-",
            "length": null,
            "format": "default",
            "dateCreated": "2005",
            "dateDeleted": "",
            "dateMissing": [],
            "observation": "",
            "regle_gestion": "",
            "type_oracle": "number"
        },
        {
            "name": "PRE_JOU_NBR",
            "description": "Nombre de journées de présence",
            "type": "number",
            "nomenclature": "-",
            "length": null,
            "format": "default",
            "dateCreated": "2009",
            "dateDeleted": "",
            "dateMissing": [],
            "observation": "",
            "regle_gestion": "",
            "type_oracle": "number"
        },
        {
            "name": "ENT_MOD",
            "description": "Mode d’entrée",
            "type": "string",
            "nomenclature": "MS_SOR_V",
            "length": "1",
            "format": "default",
            "dateCreated": "2005",
            "dateDeleted": "",
            "dateMissing": [],
            "observation": "",
            "regle_gestion": "",
            "type_oracle": "string"
        },
        {
            "name": "ENT_PRV",
            "description": "Provenance",
            "type": "string",
            "nomenclature": "MS_PRV_V",
            "length": "1",
            "format": "default",
            "dateCreated": "2005",
            "dateDeleted": "",
            "dateMissing": [],
            "observation": "",
            "regle_gestion": "",
            "type_oracle": "string"
        },
        {
            "name": "SOR_MOD",
            "description": "Mode de sortie",
            "type": "string",
            "nomenclature": "MS_SOR_V",
            "length": "1",
            "format": "default",
            "dateCreated": "2005",
            "dateDeleted": "",
            "dateMissing": [],
            "observation": "",
            "regle_gestion": "",
            "type_oracle": "string"
        },
        {
            "name": "SOR_DES",
            "description": "Destination",
            "type": "string",
            "nomenclature": "MS_PRV_V",
            "length": "1",
            "format": "default",
            "dateCreated": "2005",
            "dateDeleted": "",
            "dateMissing": [],
            "observation": "",
            "regle_gestion": "",
            "type_oracle": "string"
        },
        {
            "name": "ACT_TYP",
            "description": "Type d’hospitalisation",
            "type": "string",
            "nomenclature": "-",
            "length": "1",
            "format": "default",
            "dateCreated": "2005",
            "dateDeleted": "",
            "dateMissing": [],
            "observation": "",
            "regle_gestion": "",
            "type_oracle": "string"
        },
        {
            "name": "NBR_MUT",
            "description": "Nombre de mutations",
            "type": "number",
            "nomenclature": "-",
            "length": null,
            "format": "default",
            "dateCreated": "2009",
            "dateDeleted": "",
            "dateMissing": [],
            "observation": "",
            "regle_gestion": "",
            "type_oracle": "number"
        },
        {
            "name": "NBR_RHA",
            "description": "Nombre de RHA",
            "type": "number",
            "nomenclature": "-",
            "length": null,
            "format": "default",
            "dateCreated": "2005",
            "dateDeleted": "",
            "dateMissing": [],
            "observation": "",
            "regle_gestion": "",
            "type_oracle": "number"
        },
        {
            "name": "NBR_GME",
            "description": "Nombre de GME (ng)",
            "type": "number",
            "nomenclature": "-",
            "length": null,
            "format": "default",
            "dateCreated": "2013",
            "dateDeleted": "",
            "dateMissing": [],
            "observation": "",
            "regle_gestion": "",
            "type_oracle": "number"
        },
        {
            "name": "NBR_CM",
            "description": "Nombre de CM (nc)",
            "type": "number",
            "length": null,
            "dateCreated": "2013",
            "dateDeleted": "",
            "nomenclature": "-",
            "dateMissing": [],
            "format": "default",
            "observation": "",
            "regle_gestion": "",
            "type_oracle": "number"
        },
        {
            "name": "NBR_UM",
            "description": "Nombre d’unité médicale",
            "type": "number",
            "length": null,
            "dateCreated": "2005",
            "dateDeleted": "2009",
            "nomenclature": "-",
            "dateMissing": [],
            "format": "default",
            "observation": "",
            "regle_gestion": "",
            "type_oracle": "number"
        },
        {
            "name": "DUMMY",
            "description": "DUMMY",
            "type": "string",
            "length": "1024",
            "dateCreated": "2011",
            "dateDeleted": "2012",
            "nomenclature": "-",
            "dateMissing": [],
            "format": "default",
            "observation": "",
            "regle_gestion": "",
            "type_oracle": "string"
        },
        {
            "name": "NBR_CMC",
            "description": "Nombre de CMC (nc)",
            "type": "number",
            "length": null,
            "dateCreated": "2005",
            "dateDeleted": "2013",
            "nomenclature": "-",
            "dateMissing": [],
            "format": "default",
            "observation": "",
            "regle_gestion": "",
            "type_oracle": "number"
        },
        {
            "name": "NBR_GHJ",
            "description": "Nombre de GHJ (ng)",
            "type": "number",
            "length": null,
            "dateCreated": "2005",
            "dateDeleted": "2013",
            "nomenclature": "-",
            "dateMissing": [],
            "format": "default",
            "observation": "",
            "regle_gestion": "",
            "type_oracle": "number"
        }
    ],
    "name": "T_SSRaa_nnS",
    "title": "synthese",
    "produit": "PMSI SSR",
    "missingValues": [
        ""
    ],
    "foreignKeys": [
        {
            "fields": [
                "ETA_NUM",
                "RHA_NUM"
            ],
            "reference": {
                "resource": "T_SSRaa_nnB",
                "fields": [
                    "ETA_NUM",
                    "RHA_NUM"
                ]
            }
        }
    ],
    "history": {
        "dateCreated": "2005",
        "dateDeleted": "",
        "dateMissing": []
    },
    "champ": "Public et Privé",
    "observation": ""
}