{
    "name": "T_SSRaa_nnCCAR",
    "title": "classification acte de réadaptation",
    "produit": "PMSI SSR",
    "history": {
        "dateCreated": "2009",
        "dateDeleted": "2014",
        "dateMissing": []
    },
    "missingValues": [
        ""
    ],
    "fields": [
        {
            "name": "CCAR_NBR_REA",
            "description": "Nombre de réalisations",
            "type": "number",
            "length": null,
            "dateCreated": "2009",
            "dateDeleted": "2014",
            "nomenclature": "-",
            "dateMissing": [],
            "format": "default",
            "observation": "",
            "regle_gestion": "",
            "type_oracle": "number"
        },
        {
            "name": "NBR_PAT",
            "description": "Nombre de patients en acte individuel",
            "type": "number",
            "length": null,
            "dateCreated": "2012",
            "dateDeleted": "2014",
            "nomenclature": "-",
            "dateMissing": [],
            "format": "default",
            "observation": "",
            "regle_gestion": "",
            "type_oracle": "number"
        },
        {
            "name": "APP_SUP_COD",
            "description": "Code supplémentaire \"appareillage\"",
            "type": "string",
            "length": "3",
            "dateCreated": "2012",
            "dateDeleted": "2014",
            "nomenclature": "-",
            "dateMissing": [],
            "format": "default",
            "observation": "",
            "regle_gestion": "",
            "type_oracle": "string"
        },
        {
            "name": "CCAR_ACT",
            "description": "Code principal",
            "type": "string",
            "length": "7",
            "dateCreated": "2009",
            "dateDeleted": "2012",
            "nomenclature": "-",
            "dateMissing": [],
            "format": "default",
            "observation": "",
            "regle_gestion": "",
            "type_oracle": "string"
        },
        {
            "name": "INT_COD",
            "description": "Code de l'intervenant",
            "type": "string",
            "length": "2",
            "dateCreated": "2009",
            "dateDeleted": "2014",
            "nomenclature": "-",
            "dateMissing": [],
            "format": "default",
            "observation": "",
            "regle_gestion": "",
            "type_oracle": "string"
        },
        {
            "name": "RHS_NUM",
            "description": "Numéro séquentiel du RHS",
            "type": "string",
            "length": "3",
            "dateCreated": "2009",
            "dateDeleted": "2014",
            "nomenclature": "-",
            "dateMissing": [],
            "format": "default",
            "observation": "",
            "regle_gestion": "",
            "type_oracle": "string"
        },
        {
            "name": "ETA_NUM",
            "description": "N° FINESS de l'établissement",
            "type": "string",
            "length": "9",
            "dateCreated": "2009",
            "dateDeleted": "2014",
            "nomenclature": "-",
            "dateMissing": [],
            "format": "default",
            "observation": "",
            "regle_gestion": "",
            "type_oracle": "string"
        },
        {
            "name": "DELAI_ENT_UM",
            "description": "Délai depuis l'entrée dans l'UM",
            "type": "number",
            "length": null,
            "dateCreated": "2012",
            "dateDeleted": "2014",
            "nomenclature": "-",
            "dateMissing": [],
            "format": "default",
            "observation": "",
            "regle_gestion": "",
            "type_oracle": "number"
        },
        {
            "name": "MODUL_PAT1_COD",
            "description": "Code \"modulateur de patient\" n°1",
            "type": "string",
            "length": "2",
            "dateCreated": "2012",
            "dateDeleted": "2014",
            "nomenclature": "-",
            "dateMissing": [],
            "format": "default",
            "observation": "",
            "regle_gestion": "",
            "type_oracle": "string"
        },
        {
            "name": "MODUL_PAT2_COD",
            "description": "Code \"modulateur de patient\" n°2",
            "type": "string",
            "length": "2",
            "dateCreated": "2012",
            "dateDeleted": "2014",
            "nomenclature": "-",
            "dateMissing": [],
            "format": "default",
            "observation": "",
            "regle_gestion": "",
            "type_oracle": "string"
        },
        {
            "name": "CCAR_ACT_COMP_WEEK",
            "description": "Acte compatible avec  la semaine",
            "type": "string",
            "length": "1",
            "dateCreated": "2010",
            "dateDeleted": "2014",
            "nomenclature": "-",
            "dateMissing": [],
            "format": "default",
            "observation": "",
            "regle_gestion": "",
            "type_oracle": "string"
        },
        {
            "name": "CCAR_COD",
            "description": "Code principal",
            "type": "string",
            "length": "7",
            "dateCreated": "2012",
            "dateDeleted": "2014",
            "nomenclature": "-",
            "dateMissing": [],
            "format": "default",
            "observation": "",
            "regle_gestion": "",
            "type_oracle": "string"
        },
        {
            "name": "MODUL_LIEU_COD",
            "description": "Code modulateur de lieu",
            "type": "string",
            "length": "2",
            "dateCreated": "2012",
            "dateDeleted": "2014",
            "nomenclature": "-",
            "dateMissing": [],
            "format": "default",
            "observation": "",
            "regle_gestion": "",
            "type_oracle": "string"
        },
        {
            "name": "RHA_VER",
            "description": "N° version du format du RHA",
            "type": "string",
            "length": "3",
            "dateCreated": "2009",
            "dateDeleted": "2014",
            "nomenclature": "-",
            "dateMissing": [],
            "format": "default",
            "observation": "",
            "regle_gestion": "",
            "type_oracle": "string"
        },
        {
            "name": "RHA_NUM",
            "description": "N° Séquentiel du séjour",
            "type": "string",
            "length": "7",
            "dateCreated": "2009",
            "dateDeleted": "2014",
            "nomenclature": "-",
            "dateMissing": [],
            "format": "default",
            "observation": "",
            "regle_gestion": "",
            "type_oracle": "string"
        }
    ],
    "foreignKeys": [
        {
            "fields": [
                "ETA_NUM",
                "RHA_NUM",
                "RHS_NUM"
            ],
            "reference": {
                "resource": "T_SSRaa_nnB",
                "fields": [
                    "ETA_NUM",
                    "RHA_NUM",
                    "RHS_NUM"
                ]
            }
        }
    ],
    "champ": "Public et Privé",
    "observation": "remplacée par la table T_SSRaaCSARR"
}