{
    "fields": [
        {
            "name": "COEFGEO",
            "description": "Coefficient géographique",
            "type": "number",
            "nomenclature": "-",
            "length": "3,2",
            "format": "default",
            "dateCreated": "2011",
            "dateDeleted": "",
            "dateMissing": [],
            "observation": "",
            "regle_gestion": "",
            "type_oracle": "number"
        },
        {
            "name": "COEFPRUD",
            "description": "coefficient prudentiel",
            "type": "number",
            "nomenclature": "-",
            "length": "5,4",
            "format": "default",
            "dateCreated": "2014",
            "dateDeleted": "",
            "dateMissing": [],
            "observation": "",
            "regle_gestion": "",
            "type_oracle": "number"
        },
        {
            "name": "COEFTRANS",
            "description": "Coefficient de transition",
            "type": "number",
            "nomenclature": "-",
            "length": "5,4",
            "format": "default",
            "dateCreated": "2011",
            "dateDeleted": "",
            "dateMissing": [],
            "observation": "",
            "regle_gestion": "",
            "type_oracle": "number"
        },
        {
            "name": "ETA_NUM",
            "description": "Numéro FINESS de l’établissement",
            "type": "string",
            "nomenclature": "-",
            "length": "9",
            "format": "default",
            "dateCreated": "2011",
            "dateDeleted": "",
            "dateMissing": [],
            "observation": "",
            "regle_gestion": "",
            "type_oracle": "string"
        },
        {
            "name": "ETE_GHS_NUM",
            "description": "GHS au format DCIR",
            "type": "number",
            "nomenclature": "-",
            "length": "4",
            "format": "default",
            "dateCreated": "2011",
            "dateDeleted": "",
            "dateMissing": [],
            "observation": "",
            "regle_gestion": "",
            "type_oracle": "number"
        },
        {
            "name": "FLAG_FIDES",
            "description": "Indicateur FIDES GENRSA ; vaut 1 si le séjour est pris en charge dans le cadre de FIDES",
            "type": "string",
            "nomenclature": "-",
            "length": "1",
            "format": "default",
            "dateCreated": "2014",
            "dateDeleted": "",
            "dateMissing": [],
            "observation": "",
            "regle_gestion": "",
            "type_oracle": "string"
        },
        {
            "name": "GHS_NUM",
            "description": "Numéro du GHS",
            "type": "string",
            "nomenclature": "-",
            "length": "4",
            "format": "default",
            "dateCreated": "2011",
            "dateDeleted": "",
            "dateMissing": [],
            "observation": "",
            "regle_gestion": "",
            "type_oracle": "string"
        },
        {
            "name": "GHS50",
            "description": "Nb séjours avec réhospitalisation dans le même GHM",
            "type": "number",
            "nomenclature": "-",
            "length": "5",
            "format": "default",
            "dateCreated": "2011",
            "dateDeleted": "",
            "dateMissing": [],
            "observation": "",
            "regle_gestion": "",
            "type_oracle": "number"
        },
        {
            "name": "MNT_18",
            "description": "Montant participation forfaitaire du 18 euros",
            "type": "number",
            "nomenclature": "-",
            "length": "10,2",
            "format": "default",
            "dateCreated": "2011",
            "dateDeleted": "",
            "dateMissing": [],
            "observation": "",
            "regle_gestion": "",
            "type_oracle": "number"
        },
        {
            "name": "MNT_9610_AM",
            "description": "Valorisation AM actes menant dans le GHS 9610",
            "type": "number",
            "nomenclature": "-",
            "length": "10,2",
            "format": "default",
            "dateCreated": "2011",
            "dateDeleted": "",
            "dateMissing": [],
            "observation": "",
            "regle_gestion": "",
            "type_oracle": "number"
        },
        {
            "name": "MNT_9615_AM",
            "description": "Valorisation AM actes menant dans le GHS 9615",
            "type": "number",
            "nomenclature": "-",
            "length": "10,2",
            "format": "default",
            "dateCreated": "2011",
            "dateDeleted": "",
            "dateMissing": [],
            "observation": "",
            "regle_gestion": "",
            "type_oracle": "number"
        },
        {
            "name": "MNT_9619_AM",
            "description": "Valorisation AM actes menant dans le GHS 9619",
            "type": "number",
            "nomenclature": "-",
            "length": "10,2",
            "format": "default",
            "dateCreated": "2011",
            "dateDeleted": "",
            "dateMissing": [],
            "observation": "",
            "regle_gestion": "",
            "type_oracle": "number"
        },
        {
            "name": "MNT_9620_AM",
            "description": "Valorisation AM actes menant dans le GHS 9620",
            "type": "number",
            "nomenclature": "-",
            "length": "10,2",
            "format": "default",
            "dateCreated": "2011",
            "dateDeleted": "",
            "dateMissing": [],
            "observation": "",
            "regle_gestion": "",
            "type_oracle": "number"
        },
        {
            "name": "MNT_9621_AM",
            "description": "Valorisation AM actes menant dans le GHS 9621",
            "type": "number",
            "nomenclature": "-",
            "length": "10,2",
            "format": "default",
            "dateCreated": "2011",
            "dateDeleted": "",
            "dateMissing": [],
            "observation": "",
            "regle_gestion": "",
            "type_oracle": "number"
        },
        {
            "name": "MNT_9622_AM",
            "description": "Valorisation AM actes menant dans le GHS 9622",
            "type": "number",
            "nomenclature": "-",
            "length": "10,2",
            "format": "default",
            "dateCreated": "2011",
            "dateDeleted": "",
            "dateMissing": [],
            "observation": "",
            "regle_gestion": "",
            "type_oracle": "number"
        },
        {
            "name": "MNT_9623_AM",
            "description": "Valorisation AM actes menant dans le GHS 9623",
            "type": "number",
            "nomenclature": "-",
            "length": "10,2",
            "format": "default",
            "dateCreated": "2012",
            "dateDeleted": "",
            "dateMissing": [],
            "observation": "",
            "regle_gestion": "",
            "type_oracle": "number"
        },
        {
            "name": "MNT_9625_AM",
            "description": "Valorisation AM actes menant dans le GHS 9625",
            "type": "number",
            "nomenclature": "-",
            "length": "10,2",
            "format": "default",
            "dateCreated": "2011",
            "dateDeleted": "",
            "dateMissing": [],
            "observation": "",
            "regle_gestion": "",
            "type_oracle": "number"
        },
        {
            "name": "MNT_9631_AM",
            "description": "Valorisation AM actes menant dans le GHS 9631",
            "type": "number",
            "nomenclature": "-",
            "length": "10,2",
            "format": "default",
            "dateCreated": "2011",
            "dateDeleted": "",
            "dateMissing": [],
            "observation": "",
            "regle_gestion": "",
            "type_oracle": "number"
        },
        {
            "name": "MNT_9632_AM",
            "description": "Valorisation AM actes menant dans le GHS 9632",
            "type": "number",
            "nomenclature": "-",
            "length": "10,2",
            "format": "default",
            "dateCreated": "2011",
            "dateDeleted": "",
            "dateMissing": [],
            "observation": "",
            "regle_gestion": "",
            "type_oracle": "number"
        },
        {
            "name": "MNT_9633_AM",
            "description": "Valorisation AM actes menant dans le GHS 9633",
            "type": "number",
            "nomenclature": "-",
            "length": "10,2",
            "format": "default",
            "dateCreated": "2011",
            "dateDeleted": "",
            "dateMissing": [],
            "observation": "",
            "regle_gestion": "",
            "type_oracle": "number"
        },
        {
            "name": "MNT_ANT_AM",
            "description": "Valorisation AM suppléments antepartum",
            "type": "number",
            "nomenclature": "-",
            "length": "10,2",
            "format": "default",
            "dateCreated": "2012",
            "dateDeleted": "",
            "dateMissing": [],
            "observation": "",
            "regle_gestion": "",
            "type_oracle": "number"
        },
        {
            "name": "MNT_CAISSON_AM",
            "description": "Valorisation AM suppléments caisson hyperbare",
            "type": "number",
            "nomenclature": "-",
            "length": "10,2",
            "format": "default",
            "dateCreated": "2011",
            "dateDeleted": "",
            "dateMissing": [],
            "observation": "",
            "regle_gestion": "",
            "type_oracle": "number"
        },
        {
            "name": "MNT_DIP_AM",
            "description": "Valorisation AM suppléments de dialyse DIP",
            "type": "number",
            "nomenclature": "-",
            "length": "10,2",
            "format": "default",
            "dateCreated": "2011",
            "dateDeleted": "",
            "dateMissing": [],
            "observation": "",
            "regle_gestion": "",
            "type_oracle": "number"
        },
        {
            "name": "MNT_DMI",
            "description": "Valorisation accordée DMI",
            "type": "number",
            "nomenclature": "-",
            "length": "10,2",
            "format": "default",
            "dateCreated": "2011",
            "dateDeleted": "",
            "dateMissing": [],
            "observation": "",
            "regle_gestion": "",
            "type_oracle": "number"
        },
        {
            "name": "MNT_EXH_AM",
            "description": "Valorisation AM EXH",
            "type": "number",
            "nomenclature": "-",
            "length": "10,2",
            "format": "default",
            "dateCreated": "2011",
            "dateDeleted": "",
            "dateMissing": [],
            "observation": "",
            "regle_gestion": "",
            "type_oracle": "number"
        },
        {
            "name": "MNT_EXINF_AM",
            "description": "Valorisation AM EXB",
            "type": "number",
            "nomenclature": "-",
            "length": "10,2",
            "format": "default",
            "dateCreated": "2011",
            "dateDeleted": "",
            "dateMissing": [],
            "observation": "",
            "regle_gestion": "",
            "type_oracle": "number"
        },
        {
            "name": "MNT_FJ2",
            "description": "Montant du forfait journalier",
            "type": "number",
            "nomenclature": "-",
            "length": "10,2",
            "format": "default",
            "dateCreated": "2011",
            "dateDeleted": "",
            "dateMissing": [],
            "observation": "",
            "regle_gestion": "",
            "type_oracle": "number"
        },
        {
            "name": "MNT_GHS_AM",
            "description": "Valorisation AM GHS",
            "type": "number",
            "nomenclature": "-",
            "length": "10,2",
            "format": "default",
            "dateCreated": "2011",
            "dateDeleted": "",
            "dateMissing": [],
            "observation": "",
            "regle_gestion": "",
            "type_oracle": "number"
        },
        {
            "name": "MNT_GHS50_AM",
            "description": "Valorisation AM des séjours avec réhospitalisation dans le même GHM",
            "type": "number",
            "nomenclature": "-",
            "length": "10,2",
            "format": "default",
            "dateCreated": "2011",
            "dateDeleted": "",
            "dateMissing": [],
            "observation": "",
            "regle_gestion": "",
            "type_oracle": "number"
        },
        {
            "name": "MNT_IVG_AM",
            "description": "Valorisation AM IVG (hors FJS)",
            "type": "number",
            "nomenclature": "-",
            "length": "10,2",
            "format": "default",
            "dateCreated": "2011",
            "dateDeleted": "",
            "dateMissing": [],
            "observation": "",
            "regle_gestion": "",
            "type_oracle": "number"
        },
        {
            "name": "MNT_MAJO",
            "description": "Montant majoration du parcours de soin",
            "type": "number",
            "nomenclature": "-",
            "length": "10,2",
            "format": "default",
            "dateCreated": "2011",
            "dateDeleted": "",
            "dateMissing": [],
            "observation": "",
            "regle_gestion": "",
            "type_oracle": "number"
        },
        {
            "name": "MNT_MED_ATU",
            "description": "Valorisation accordée médicaments ATU/POST ATU",
            "type": "number",
            "nomenclature": "-",
            "length": "10,2",
            "format": "default",
            "dateCreated": "2017",
            "dateDeleted": "",
            "dateMissing": [],
            "observation": "",
            "regle_gestion": "",
            "type_oracle": "number"
        },
        {
            "name": "MNT_MON",
            "description": "Valorisation accordée molécules onéreuses",
            "type": "number",
            "nomenclature": "-",
            "length": "10,2",
            "format": "default",
            "dateCreated": "2011",
            "dateDeleted": "",
            "dateMissing": [],
            "observation": "",
            "regle_gestion": "",
            "type_oracle": "number"
        },
        {
            "name": "MNT_NN1_AM",
            "description": "Valorisation AM suppléments de néonat sans SI",
            "type": "number",
            "nomenclature": "-",
            "length": "10,2",
            "format": "default",
            "dateCreated": "2011",
            "dateDeleted": "",
            "dateMissing": [],
            "observation": "",
            "regle_gestion": "",
            "type_oracle": "number"
        },
        {
            "name": "MNT_NN2_AM",
            "description": "Valorisation AM suppléments de néonat avec SI",
            "type": "number",
            "nomenclature": "-",
            "length": "10,2",
            "format": "default",
            "dateCreated": "2011",
            "dateDeleted": "",
            "dateMissing": [],
            "observation": "",
            "regle_gestion": "",
            "type_oracle": "number"
        },
        {
            "name": "MNT_NN3_AM",
            "description": "Valorisation AM suppléments de réanimation néonat",
            "type": "number",
            "nomenclature": "-",
            "length": "10,2",
            "format": "default",
            "dateCreated": "2011",
            "dateDeleted": "",
            "dateMissing": [],
            "observation": "",
            "regle_gestion": "",
            "type_oracle": "number"
        },
        {
            "name": "MNT_PO1_AM",
            "description": "Valorisation AM PO1",
            "type": "number",
            "nomenclature": "-",
            "length": "10,2",
            "format": "default",
            "dateCreated": "2011",
            "dateDeleted": "",
            "dateMissing": [],
            "observation": "",
            "regle_gestion": "",
            "type_oracle": "number"
        },
        {
            "name": "MNT_PO2_AM",
            "description": "Valorisation AM PO2",
            "type": "number",
            "nomenclature": "-",
            "length": "10,2",
            "format": "default",
            "dateCreated": "2011",
            "dateDeleted": "",
            "dateMissing": [],
            "observation": "",
            "regle_gestion": "",
            "type_oracle": "number"
        },
        {
            "name": "MNT_PO3_AM",
            "description": "Valorisation AM PO3",
            "type": "number",
            "nomenclature": "-",
            "length": "10,2",
            "format": "default",
            "dateCreated": "2011",
            "dateDeleted": "",
            "dateMissing": [],
            "observation": "",
            "regle_gestion": "",
            "type_oracle": "number"
        },
        {
            "name": "MNT_PO4_AM",
            "description": "Valorisation AM PO4",
            "type": "number",
            "nomenclature": "-",
            "length": "10,2",
            "format": "default",
            "dateCreated": "2011",
            "dateDeleted": "",
            "dateMissing": [],
            "observation": "",
            "regle_gestion": "",
            "type_oracle": "number"
        },
        {
            "name": "MNT_PO5_AM",
            "description": "Valorisation AM PO5",
            "type": "number",
            "nomenclature": "-",
            "length": "10,2",
            "format": "default",
            "dateCreated": "2011",
            "dateDeleted": "",
            "dateMissing": [],
            "observation": "",
            "regle_gestion": "",
            "type_oracle": "number"
        },
        {
            "name": "MNT_PO6_AM",
            "description": "Valorisation AM PO6",
            "type": "number",
            "nomenclature": "-",
            "length": "10,2",
            "format": "default",
            "dateCreated": "2011",
            "dateDeleted": "",
            "dateMissing": [],
            "observation": "",
            "regle_gestion": "",
            "type_oracle": "number"
        },
        {
            "name": "MNT_PO7_AM",
            "description": "Valorisation AM PO7",
            "type": "number",
            "nomenclature": "-",
            "length": "10,2",
            "format": "default",
            "dateCreated": "2011",
            "dateDeleted": "",
            "dateMissing": [],
            "observation": "",
            "regle_gestion": "",
            "type_oracle": "number"
        },
        {
            "name": "MNT_PO8_AM",
            "description": "Valorisation AM PO8",
            "type": "number",
            "nomenclature": "-",
            "length": "10,2",
            "format": "default",
            "dateCreated": "2011",
            "dateDeleted": "",
            "dateMissing": [],
            "observation": "",
            "regle_gestion": "",
            "type_oracle": "number"
        },
        {
            "name": "MNT_PO9_AM",
            "description": "Valorisation AM PO9",
            "type": "number",
            "nomenclature": "-",
            "length": "10,2",
            "format": "default",
            "dateCreated": "2011",
            "dateDeleted": "",
            "dateMissing": [],
            "observation": "",
            "regle_gestion": "",
            "type_oracle": "number"
        },
        {
            "name": "MNT_POA_AM",
            "description": "Valorisation AM POA",
            "type": "number",
            "nomenclature": "-",
            "length": "10,2",
            "format": "default",
            "dateCreated": "2012",
            "dateDeleted": "",
            "dateMissing": [],
            "observation": "",
            "regle_gestion": "",
            "type_oracle": "number"
        },
        {
            "name": "MNT_RAC",
            "description": "Montant remboursable par l'organisme complémentaire (AMC)",
            "type": "number",
            "nomenclature": "-",
            "length": "10,2",
            "format": "default",
            "dateCreated": "2016",
            "dateDeleted": "",
            "dateMissing": [],
            "observation": "",
            "regle_gestion": "",
            "type_oracle": "number"
        },
        {
            "name": "MNT_RAP_AM",
            "description": "Valorisation AM suppléments de radiothérapie pédiatrique",
            "type": "number",
            "nomenclature": "-",
            "length": "10,2",
            "format": "default",
            "dateCreated": "2012",
            "dateDeleted": "",
            "dateMissing": [],
            "observation": "",
            "regle_gestion": "",
            "type_oracle": "number"
        },
        {
            "name": "MNT_REA_AM",
            "description": "Valorisation AM suppléments de réanimation",
            "type": "number",
            "nomenclature": "-",
            "length": "10,2",
            "format": "default",
            "dateCreated": "2011",
            "dateDeleted": "",
            "dateMissing": [],
            "observation": "",
            "regle_gestion": "",
            "type_oracle": "number"
        },
        {
            "name": "MNT_REP_AM",
            "description": "Valorisation AM suppléments de réanimation pédiatrique",
            "type": "number",
            "nomenclature": "-",
            "length": "10,2",
            "format": "default",
            "dateCreated": "2011",
            "dateDeleted": "",
            "dateMissing": [],
            "observation": "",
            "regle_gestion": "",
            "type_oracle": "number"
        },
        {
            "name": "MNT_SC_AM",
            "description": "Valorisation AM suppléments de surveillance continue",
            "type": "number",
            "nomenclature": "-",
            "length": "10,2",
            "format": "default",
            "dateCreated": "2011",
            "dateDeleted": "",
            "dateMissing": [],
            "observation": "",
            "regle_gestion": "",
            "type_oracle": "number"
        },
        {
            "name": "MNT_SI_AM",
            "description": "Valorisation AM suppléments soins intensifs",
            "type": "number",
            "nomenclature": "-",
            "length": "10,2",
            "format": "default",
            "dateCreated": "2011",
            "dateDeleted": "",
            "dateMissing": [],
            "observation": "",
            "regle_gestion": "",
            "type_oracle": "number"
        },
        {
            "name": "MNT_SUPPENT1_AM",
            "description": "Valorisation AM suppléments pour entraînements à la dialyse péritonéale automatisée hors séance",
            "type": "number",
            "nomenclature": "-",
            "length": "10,2",
            "format": "default",
            "dateCreated": "2011",
            "dateDeleted": "",
            "dateMissing": [],
            "observation": "",
            "regle_gestion": "",
            "type_oracle": "number"
        },
        {
            "name": "MNT_SUPPENT2_AM",
            "description": "Valorisation AM suppléments pour entraînements à la dialyse péritonéale continue ambulatoire hors séance",
            "type": "number",
            "nomenclature": "-",
            "length": "10,2",
            "format": "default",
            "dateCreated": "2011",
            "dateDeleted": "",
            "dateMissing": [],
            "observation": "",
            "regle_gestion": "",
            "type_oracle": "number"
        },
        {
            "name": "MNT_SUPPENT3_AM",
            "description": "Valorisation AM suppléments pour entraînements à l’hémodialyse hors séance",
            "type": "number",
            "nomenclature": "-",
            "length": "10,2",
            "format": "default",
            "dateCreated": "2011",
            "dateDeleted": "",
            "dateMissing": [],
            "observation": "",
            "regle_gestion": "",
            "type_oracle": "number"
        },
        {
            "name": "MNT_SUPPHD_AM",
            "description": "Valorisation AM suppléments pour hémodialyse hors séance",
            "type": "number",
            "nomenclature": "-",
            "length": "10,2",
            "format": "default",
            "dateCreated": "2011",
            "dateDeleted": "",
            "dateMissing": [],
            "observation": "",
            "regle_gestion": "",
            "type_oracle": "number"
        },
        {
            "name": "MNT_TOT_AM",
            "description": "Valorisation totale AM du séjour.",
            "type": "number",
            "nomenclature": "-",
            "length": "10,2",
            "format": "default",
            "dateCreated": "2011",
            "dateDeleted": "",
            "dateMissing": [],
            "observation": "",
            "regle_gestion": "",
            "type_oracle": "number"
        },
        {
            "name": "NB_9610",
            "description": "Nombre d’actes menant dans le GHS 9610",
            "type": "number",
            "nomenclature": "-",
            "length": "5",
            "format": "default",
            "dateCreated": "2011",
            "dateDeleted": "",
            "dateMissing": [],
            "observation": "",
            "regle_gestion": "",
            "type_oracle": "number"
        },
        {
            "name": "NB_9615",
            "description": "Nombre d’actes menant dans le GHS 9615",
            "type": "number",
            "nomenclature": "-",
            "length": "5",
            "format": "default",
            "dateCreated": "2011",
            "dateDeleted": "",
            "dateMissing": [],
            "observation": "",
            "regle_gestion": "",
            "type_oracle": "number"
        },
        {
            "name": "NB_9619",
            "description": "Nombre d’actes menant dans le GHS 9619",
            "type": "number",
            "nomenclature": "-",
            "length": "5",
            "format": "default",
            "dateCreated": "2011",
            "dateDeleted": "",
            "dateMissing": [],
            "observation": "",
            "regle_gestion": "",
            "type_oracle": "number"
        },
        {
            "name": "NB_9620",
            "description": "Nombre d’actes menant dans le GHS 9620",
            "type": "number",
            "nomenclature": "-",
            "length": "5",
            "format": "default",
            "dateCreated": "2011",
            "dateDeleted": "",
            "dateMissing": [],
            "observation": "",
            "regle_gestion": "",
            "type_oracle": "number"
        },
        {
            "name": "NB_9621",
            "description": "Nombre d’actes menant dans le GHS 9621",
            "type": "number",
            "nomenclature": "-",
            "length": "5",
            "format": "default",
            "dateCreated": "2011",
            "dateDeleted": "",
            "dateMissing": [],
            "observation": "",
            "regle_gestion": "",
            "type_oracle": "number"
        },
        {
            "name": "NB_9622",
            "description": "Nombre d’actes menant dans le GHS 9622",
            "type": "number",
            "nomenclature": "-",
            "length": "5",
            "format": "default",
            "dateCreated": "2011",
            "dateDeleted": "",
            "dateMissing": [],
            "observation": "",
            "regle_gestion": "",
            "type_oracle": "number"
        },
        {
            "name": "NB_9623",
            "description": "Nombre d’actes menant dans le GHS 9623",
            "type": "number",
            "nomenclature": "-",
            "length": "5",
            "format": "default",
            "dateCreated": "2012",
            "dateDeleted": "",
            "dateMissing": [],
            "observation": "",
            "regle_gestion": "",
            "type_oracle": "number"
        },
        {
            "name": "NB_9625",
            "description": "Nombre d’actes menant dans le GHS 9625",
            "type": "number",
            "nomenclature": "-",
            "length": "5",
            "format": "default",
            "dateCreated": "2011",
            "dateDeleted": "",
            "dateMissing": [],
            "observation": "",
            "regle_gestion": "",
            "type_oracle": "number"
        },
        {
            "name": "NB_9631",
            "description": "Nombre d’actes menant dans le GHS 9631",
            "type": "number",
            "nomenclature": "-",
            "length": "5",
            "format": "default",
            "dateCreated": "2011",
            "dateDeleted": "",
            "dateMissing": [],
            "observation": "",
            "regle_gestion": "",
            "type_oracle": "number"
        },
        {
            "name": "NB_9632",
            "description": "Nombre d’actes menant dans le GHS 9632",
            "type": "number",
            "nomenclature": "-",
            "length": "5",
            "format": "default",
            "dateCreated": "2011",
            "dateDeleted": "",
            "dateMissing": [],
            "observation": "",
            "regle_gestion": "",
            "type_oracle": "number"
        },
        {
            "name": "NB_9633",
            "description": "Nombre d’actes menant dans le GHS 9633",
            "type": "number",
            "nomenclature": "-",
            "length": "5",
            "format": "default",
            "dateCreated": "2011",
            "dateDeleted": "",
            "dateMissing": [],
            "observation": "",
            "regle_gestion": "",
            "type_oracle": "number"
        },
        {
            "name": "NB_ANT",
            "description": "Nb suppléments antepartum",
            "type": "number",
            "nomenclature": "-",
            "length": "5",
            "format": "default",
            "dateCreated": "2012",
            "dateDeleted": "",
            "dateMissing": [],
            "observation": "",
            "regle_gestion": "",
            "type_oracle": "number"
        },
        {
            "name": "NB_DIP",
            "description": "Nb suppléments dialyse DIP",
            "type": "number",
            "nomenclature": "-",
            "length": "5",
            "format": "default",
            "dateCreated": "2011",
            "dateDeleted": "",
            "dateMissing": [],
            "observation": "",
            "regle_gestion": "",
            "type_oracle": "number"
        },
        {
            "name": "NB_NN1",
            "description": "Nb suppléments de néonat sans SI",
            "type": "number",
            "nomenclature": "-",
            "length": "5",
            "format": "default",
            "dateCreated": "2011",
            "dateDeleted": "",
            "dateMissing": [],
            "observation": "",
            "regle_gestion": "",
            "type_oracle": "number"
        },
        {
            "name": "NB_NN2",
            "description": "Nb suppléments de néonat avec SI",
            "type": "number",
            "nomenclature": "-",
            "length": "5",
            "format": "default",
            "dateCreated": "2011",
            "dateDeleted": "",
            "dateMissing": [],
            "observation": "",
            "regle_gestion": "",
            "type_oracle": "number"
        },
        {
            "name": "NB_NN3",
            "description": "Nb suppléments de réanimation néonat",
            "type": "number",
            "nomenclature": "-",
            "length": "5",
            "format": "default",
            "dateCreated": "2011",
            "dateDeleted": "",
            "dateMissing": [],
            "observation": "",
            "regle_gestion": "",
            "type_oracle": "number"
        },
        {
            "name": "NB_RAP",
            "description": "Nb suppléments de radiothérapie pédiatrique",
            "type": "number",
            "nomenclature": "-",
            "length": "5",
            "format": "default",
            "dateCreated": "2012",
            "dateDeleted": "",
            "dateMissing": [],
            "observation": "",
            "regle_gestion": "",
            "type_oracle": "number"
        },
        {
            "name": "NB_SRC2",
            "description": "Nb suppléments de surveillance continue",
            "type": "number",
            "nomenclature": "-",
            "length": "5",
            "format": "default",
            "dateCreated": "2011",
            "dateDeleted": "",
            "dateMissing": [],
            "observation": "",
            "regle_gestion": "",
            "type_oracle": "number"
        },
        {
            "name": "NB_STF2",
            "description": "Nb suppléments de soins intensifs",
            "type": "number",
            "nomenclature": "-",
            "length": "5",
            "format": "default",
            "dateCreated": "2011",
            "dateDeleted": "",
            "dateMissing": [],
            "observation": "",
            "regle_gestion": "",
            "type_oracle": "number"
        },
        {
            "name": "NBCAISSON",
            "description": "Nb suppléments caisson hyperbare",
            "type": "number",
            "nomenclature": "-",
            "length": "5",
            "format": "default",
            "dateCreated": "2011",
            "dateDeleted": "",
            "dateMissing": [],
            "observation": "",
            "regle_gestion": "",
            "type_oracle": "number"
        },
        {
            "name": "NBEXB",
            "description": "Nb journées EXB",
            "type": "number",
            "nomenclature": "-",
            "length": "5",
            "format": "default",
            "dateCreated": "2011",
            "dateDeleted": "",
            "dateMissing": [],
            "observation": "",
            "regle_gestion": "",
            "type_oracle": "number"
        },
        {
            "name": "NBEXH",
            "description": "Nombre de journées EXH",
            "type": "number",
            "nomenclature": "-",
            "length": "5",
            "format": "default",
            "dateCreated": "2011",
            "dateDeleted": "",
            "dateMissing": [],
            "observation": "",
            "regle_gestion": "",
            "type_oracle": "number"
        },
        {
            "name": "NBJREA",
            "description": "Nb suppléments de réanimation",
            "type": "number",
            "nomenclature": "-",
            "length": "5",
            "format": "default",
            "dateCreated": "2011",
            "dateDeleted": "",
            "dateMissing": [],
            "observation": "",
            "regle_gestion": "",
            "type_oracle": "number"
        },
        {
            "name": "NBREP",
            "description": "Nb suppléments de réanimation pédiatrique",
            "type": "number",
            "nomenclature": "-",
            "length": "5",
            "format": "default",
            "dateCreated": "2011",
            "dateDeleted": "",
            "dateMissing": [],
            "observation": "",
            "regle_gestion": "",
            "type_oracle": "number"
        },
        {
            "name": "PONDER",
            "description": "Nombre de séjours ou nombre de séances",
            "type": "number",
            "nomenclature": "-",
            "length": "5",
            "format": "default",
            "dateCreated": "2011",
            "dateDeleted": "",
            "dateMissing": [],
            "observation": "",
            "regle_gestion": "",
            "type_oracle": "number"
        },
        {
            "name": "RSA_NUM",
            "description": "Numéro de séjour RSS",
            "type": "string",
            "nomenclature": "-",
            "length": "10",
            "format": "default",
            "dateCreated": "2011",
            "dateDeleted": "",
            "dateMissing": [],
            "observation": "",
            "regle_gestion": "",
            "type_oracle": "string"
        },
        {
            "name": "SEJXINF",
            "description": "Type de séjour inférieur à la borne extrême basse",
            "type": "string",
            "nomenclature": "-",
            "length": "1",
            "format": "default",
            "dateCreated": "2011",
            "dateDeleted": "",
            "dateMissing": [],
            "observation": "",
            "regle_gestion": "",
            "type_oracle": "string"
        },
        {
            "name": "SUPPENT1",
            "description": "Nb suppléments pour entraînements à la dialyse péritonéale automatisée hors séance",
            "type": "number",
            "nomenclature": "-",
            "length": "5",
            "format": "default",
            "dateCreated": "2011",
            "dateDeleted": "",
            "dateMissing": [],
            "observation": "",
            "regle_gestion": "",
            "type_oracle": "number"
        },
        {
            "name": "SUPPENT2",
            "description": "Nb suppléments pour entraînements à la dialyse péritonéale continue ambulatoire hors séance",
            "type": "number",
            "nomenclature": "-",
            "length": "5",
            "format": "default",
            "dateCreated": "2011",
            "dateDeleted": "",
            "dateMissing": [],
            "observation": "",
            "regle_gestion": "",
            "type_oracle": "number"
        },
        {
            "name": "SUPPENT3",
            "description": "Nb suppléments pour entraînements à l’hémodialyse hors séance",
            "type": "number",
            "nomenclature": "-",
            "length": "5",
            "format": "default",
            "dateCreated": "2011",
            "dateDeleted": "",
            "dateMissing": [],
            "observation": "",
            "regle_gestion": "",
            "type_oracle": "number"
        },
        {
            "name": "SUPPHD",
            "description": "Nb suppléments pour hémodialyse hors séance",
            "type": "number",
            "nomenclature": "-",
            "length": "5",
            "format": "default",
            "dateCreated": "2011",
            "dateDeleted": "",
            "dateMissing": [],
            "observation": "",
            "regle_gestion": "",
            "type_oracle": "number"
        },
        {
            "name": "TAUX2",
            "description": "Taux de remboursement",
            "type": "number",
            "nomenclature": "-",
            "length": "5,2",
            "format": "default",
            "dateCreated": "2011",
            "dateDeleted": "",
            "dateMissing": [],
            "observation": "",
            "regle_gestion": "",
            "type_oracle": "number"
        },
        {
            "name": "TYPORG",
            "description": "Type de prestation de prélèvement d’organe (type 1, 2, 3 ou 4)",
            "type": "string",
            "nomenclature": "-",
            "length": "1",
            "format": "default",
            "dateCreated": "2011",
            "dateDeleted": "",
            "dateMissing": [],
            "observation": "",
            "regle_gestion": "",
            "type_oracle": "string"
        },
        {
            "name": "TYPORG5",
            "description": "Prélèvement d’organe de type 5",
            "type": "string",
            "nomenclature": "-",
            "length": "1",
            "format": "default",
            "dateCreated": "2011",
            "dateDeleted": "",
            "dateMissing": [],
            "observation": "",
            "regle_gestion": "",
            "type_oracle": "string"
        },
        {
            "name": "TYPORG6",
            "description": "Prélèvement d’organe de type 6",
            "type": "string",
            "nomenclature": "-",
            "length": "1",
            "format": "default",
            "dateCreated": "2011",
            "dateDeleted": "",
            "dateMissing": [],
            "observation": "",
            "regle_gestion": "",
            "type_oracle": "string"
        },
        {
            "name": "TYPORG7",
            "description": "Prélèvement d’organe de type 7",
            "type": "string",
            "nomenclature": "-",
            "length": "1",
            "format": "default",
            "dateCreated": "2011",
            "dateDeleted": "",
            "dateMissing": [],
            "observation": "",
            "regle_gestion": "",
            "type_oracle": "string"
        },
        {
            "name": "TYPORG8",
            "description": "Prélèvement d’organe de type 8",
            "type": "string",
            "nomenclature": "-",
            "length": "1",
            "format": "default",
            "dateCreated": "2011",
            "dateDeleted": "",
            "dateMissing": [],
            "observation": "",
            "regle_gestion": "",
            "type_oracle": "string"
        },
        {
            "name": "TYPORG9",
            "description": "Prélèvement d’organe de type 9",
            "type": "string",
            "nomenclature": "-",
            "length": "1",
            "format": "default",
            "dateCreated": "2011",
            "dateDeleted": "",
            "dateMissing": [],
            "observation": "",
            "regle_gestion": "",
            "type_oracle": "string"
        },
        {
            "name": "TYPORGA",
            "description": "Prélèvement d’organe de type A",
            "type": "string",
            "nomenclature": "-",
            "length": "1",
            "format": "default",
            "dateCreated": "2012",
            "dateDeleted": "",
            "dateMissing": [],
            "observation": "",
            "regle_gestion": "",
            "type_oracle": "string"
        },
        {
            "name": "VALO",
            "description": "Type de valorisation du séjour",
            "type": "string",
            "nomenclature": "-",
            "length": "1",
            "format": "default",
            "dateCreated": "2011",
            "dateDeleted": "",
            "dateMissing": [],
            "observation": "",
            "regle_gestion": "",
            "type_oracle": "string"
        },
        {
            "name": "MNT_GHS_BR",
            "description": "Valorisation BR GHS",
            "type": "number",
            "nomenclature": "-",
            "length": null,
            "format": "default",
            "dateCreated": "",
            "dateDeleted": "",
            "dateMissing": [],
            "observation": "",
            "regle_gestion": "",
            "type_oracle": "number"
        },
        {
            "name": "MNT_EXINF_BR",
            "description": "Valorisation BR EXB",
            "type": "number",
            "nomenclature": "-",
            "length": null,
            "format": "default",
            "dateCreated": "",
            "dateDeleted": "",
            "dateMissing": [],
            "observation": "",
            "regle_gestion": "",
            "type_oracle": "number"
        },
        {
            "name": "MNT_GHS50_BR",
            "description": "Valorisation BR des séjours avec réhospitalisation dans le même GHM",
            "type": "number",
            "nomenclature": "-",
            "length": null,
            "format": "default",
            "dateCreated": "",
            "dateDeleted": "",
            "dateMissing": [],
            "observation": "",
            "regle_gestion": "",
            "type_oracle": "number"
        },
        {
            "name": "MNT_EXH_BR",
            "description": "Valorisation BR EXH",
            "type": "number",
            "nomenclature": "-",
            "length": null,
            "format": "default",
            "dateCreated": "",
            "dateDeleted": "",
            "dateMissing": [],
            "observation": "",
            "regle_gestion": "",
            "type_oracle": "number"
        },
        {
            "name": "MNT_SUPPHD_BR",
            "description": "Valorisation BR suppléments pour hémodialyse hors séance",
            "type": "number",
            "nomenclature": "-",
            "length": null,
            "format": "default",
            "dateCreated": "",
            "dateDeleted": "",
            "dateMissing": [],
            "observation": "",
            "regle_gestion": "",
            "type_oracle": "number"
        },
        {
            "name": "MNT_SUPPENT1_BR",
            "description": "Valorisation BR suppléments pour entraînements à la dialyse péritonéale automatisée hors séance",
            "type": "number",
            "nomenclature": "-",
            "length": null,
            "format": "default",
            "dateCreated": "",
            "dateDeleted": "",
            "dateMissing": [],
            "observation": "",
            "regle_gestion": "",
            "type_oracle": "number"
        },
        {
            "name": "MNT_SUPPENT2_BR",
            "description": "Valorisation BR suppléments pour entraînements à la dialyse péritonéale continue ambulatoire hors séance",
            "type": "number",
            "nomenclature": "-",
            "length": null,
            "format": "default",
            "dateCreated": "",
            "dateDeleted": "",
            "dateMissing": [],
            "observation": "",
            "regle_gestion": "",
            "type_oracle": "number"
        },
        {
            "name": "MNT_SUPPENT3_BR",
            "description": "Valorisation BR suppléments pour entraînements à l’hémodialyse hors séance",
            "type": "number",
            "nomenclature": "-",
            "length": null,
            "format": "default",
            "dateCreated": "",
            "dateDeleted": "",
            "dateMissing": [],
            "observation": "",
            "regle_gestion": "",
            "type_oracle": "number"
        },
        {
            "name": "MNT_DIP_BR",
            "description": "Valorisation BR suppléments de dialyse DIP",
            "type": "number",
            "nomenclature": "-",
            "length": null,
            "format": "default",
            "dateCreated": "",
            "dateDeleted": "",
            "dateMissing": [],
            "observation": "",
            "regle_gestion": "",
            "type_oracle": "number"
        },
        {
            "name": "MNT_PO1_BR",
            "description": "Valorisation BR PO1",
            "type": "number",
            "nomenclature": "-",
            "length": null,
            "format": "default",
            "dateCreated": "",
            "dateDeleted": "",
            "dateMissing": [],
            "observation": "",
            "regle_gestion": "",
            "type_oracle": "number"
        },
        {
            "name": "MNT_PO2_BR",
            "description": "Valorisation BR PO2",
            "type": "number",
            "nomenclature": "-",
            "length": null,
            "format": "default",
            "dateCreated": "",
            "dateDeleted": "",
            "dateMissing": [],
            "observation": "",
            "regle_gestion": "",
            "type_oracle": "number"
        },
        {
            "name": "MNT_PO3_BR",
            "description": "Valorisation BR PO3",
            "type": "number",
            "nomenclature": "-",
            "length": null,
            "format": "default",
            "dateCreated": "",
            "dateDeleted": "",
            "dateMissing": [],
            "observation": "",
            "regle_gestion": "",
            "type_oracle": "number"
        },
        {
            "name": "MNT_PO4_BR",
            "description": "Valorisation BR PO4",
            "type": "number",
            "nomenclature": "-",
            "length": null,
            "format": "default",
            "dateCreated": "",
            "dateDeleted": "",
            "dateMissing": [],
            "observation": "",
            "regle_gestion": "",
            "type_oracle": "number"
        },
        {
            "name": "MNT_PO5_BR",
            "description": "Valorisation BR PO5",
            "type": "number",
            "nomenclature": "-",
            "length": null,
            "format": "default",
            "dateCreated": "",
            "dateDeleted": "",
            "dateMissing": [],
            "observation": "",
            "regle_gestion": "",
            "type_oracle": "number"
        },
        {
            "name": "MNT_PO6_BR",
            "description": "Valorisation BR PO6",
            "type": "number",
            "nomenclature": "-",
            "length": null,
            "format": "default",
            "dateCreated": "",
            "dateDeleted": "",
            "dateMissing": [],
            "observation": "",
            "regle_gestion": "",
            "type_oracle": "number"
        },
        {
            "name": "MNT_PO7_BR",
            "description": "Valorisation BR PO7",
            "type": "number",
            "nomenclature": "-",
            "length": null,
            "format": "default",
            "dateCreated": "",
            "dateDeleted": "",
            "dateMissing": [],
            "observation": "",
            "regle_gestion": "",
            "type_oracle": "number"
        },
        {
            "name": "MNT_PO8_BR",
            "description": "Valorisation BR PO8",
            "type": "number",
            "nomenclature": "-",
            "length": null,
            "format": "default",
            "dateCreated": "",
            "dateDeleted": "",
            "dateMissing": [],
            "observation": "",
            "regle_gestion": "",
            "type_oracle": "number"
        },
        {
            "name": "MNT_PO9_BR",
            "description": "Valorisation BR PO9",
            "type": "number",
            "nomenclature": "-",
            "length": null,
            "format": "default",
            "dateCreated": "",
            "dateDeleted": "",
            "dateMissing": [],
            "observation": "",
            "regle_gestion": "",
            "type_oracle": "number"
        },
        {
            "name": "MNT_POA_BR",
            "description": "Valorisation BR POA",
            "type": "number",
            "nomenclature": "-",
            "length": null,
            "format": "default",
            "dateCreated": "",
            "dateDeleted": "",
            "dateMissing": [],
            "observation": "",
            "regle_gestion": "",
            "type_oracle": "number"
        },
        {
            "name": "MNT_9610_BR",
            "description": "Valorisation BR actes menant dans le GHS 9610",
            "type": "number",
            "nomenclature": "-",
            "length": null,
            "format": "default",
            "dateCreated": "",
            "dateDeleted": "",
            "dateMissing": [],
            "observation": "",
            "regle_gestion": "",
            "type_oracle": "number"
        },
        {
            "name": "MNT_9619_BR",
            "description": "Valorisation BR actes menant dans le GHS 9619",
            "type": "number",
            "nomenclature": "-",
            "length": null,
            "format": "default",
            "dateCreated": "",
            "dateDeleted": "",
            "dateMissing": [],
            "observation": "",
            "regle_gestion": "",
            "type_oracle": "number"
        },
        {
            "name": "MNT_9620_BR",
            "description": "Valorisation BR actes menant dans le GHS 9620",
            "type": "number",
            "nomenclature": "-",
            "length": null,
            "format": "default",
            "dateCreated": "",
            "dateDeleted": "",
            "dateMissing": [],
            "observation": "",
            "regle_gestion": "",
            "type_oracle": "number"
        },
        {
            "name": "MNT_9621_BR",
            "description": "Valorisation BR actes menant dans le GHS 9621",
            "type": "number",
            "nomenclature": "-",
            "length": null,
            "format": "default",
            "dateCreated": "",
            "dateDeleted": "",
            "dateMissing": [],
            "observation": "",
            "regle_gestion": "",
            "type_oracle": "number"
        },
        {
            "name": "MNT_9622_BR",
            "description": "Valorisation BR actes menant dans le GHS 9622",
            "type": "number",
            "nomenclature": "-",
            "length": null,
            "format": "default",
            "dateCreated": "",
            "dateDeleted": "",
            "dateMissing": [],
            "observation": "",
            "regle_gestion": "",
            "type_oracle": "number"
        },
        {
            "name": "MNT_9623_BR",
            "description": "Valorisation BR actes menant dans le GHS 9623",
            "type": "number",
            "nomenclature": "-",
            "length": null,
            "format": "default",
            "dateCreated": "",
            "dateDeleted": "",
            "dateMissing": [],
            "observation": "",
            "regle_gestion": "",
            "type_oracle": "number"
        },
        {
            "name": "MNT_9625_BR",
            "description": "Valorisation BR actes menant dans le GHS 9625",
            "type": "number",
            "nomenclature": "-",
            "length": null,
            "format": "default",
            "dateCreated": "",
            "dateDeleted": "",
            "dateMissing": [],
            "observation": "",
            "regle_gestion": "",
            "type_oracle": "number"
        },
        {
            "name": "MNT_9631_BR",
            "description": "Valorisation BR actes menant dans le GHS 9631",
            "type": "number",
            "nomenclature": "-",
            "length": null,
            "format": "default",
            "dateCreated": "",
            "dateDeleted": "",
            "dateMissing": [],
            "observation": "",
            "regle_gestion": "",
            "type_oracle": "number"
        },
        {
            "name": "MNT_9632_BR",
            "description": "Valorisation BR actes menant dans le GHS 9632",
            "type": "number",
            "nomenclature": "-",
            "length": null,
            "format": "default",
            "dateCreated": "",
            "dateDeleted": "",
            "dateMissing": [],
            "observation": "",
            "regle_gestion": "",
            "type_oracle": "number"
        },
        {
            "name": "MNT_9633_BR",
            "description": "Valorisation BR actes menant dans le GHS 9633",
            "type": "number",
            "nomenclature": "-",
            "length": null,
            "format": "default",
            "dateCreated": "",
            "dateDeleted": "",
            "dateMissing": [],
            "observation": "",
            "regle_gestion": "",
            "type_oracle": "number"
        },
        {
            "name": "MNT_9615_BR",
            "description": "Valorisation BR actes menant dans le GHS 9615",
            "type": "number",
            "nomenclature": "-",
            "length": null,
            "format": "default",
            "dateCreated": "",
            "dateDeleted": "",
            "dateMissing": [],
            "observation": "",
            "regle_gestion": "",
            "type_oracle": "number"
        },
        {
            "name": "MNT_REA_BR",
            "description": "Valorisation BR suppléments de réanimation",
            "type": "number",
            "nomenclature": "-",
            "length": null,
            "format": "default",
            "dateCreated": "",
            "dateDeleted": "",
            "dateMissing": [],
            "observation": "",
            "regle_gestion": "",
            "type_oracle": "number"
        },
        {
            "name": "MNT_REP_BR",
            "description": "Valorisation BR suppléments de réanimation pédiatrique",
            "type": "number",
            "nomenclature": "-",
            "length": null,
            "format": "default",
            "dateCreated": "",
            "dateDeleted": "",
            "dateMissing": [],
            "observation": "",
            "regle_gestion": "",
            "type_oracle": "number"
        },
        {
            "name": "MNT_SI_BR",
            "description": "Valorisation BR suppléments soins intensifs",
            "type": "number",
            "nomenclature": "-",
            "length": null,
            "format": "default",
            "dateCreated": "",
            "dateDeleted": "",
            "dateMissing": [],
            "observation": "",
            "regle_gestion": "",
            "type_oracle": "number"
        },
        {
            "name": "MNT_SC_BR",
            "description": "Valorisation BR suppléments de surveillance continue",
            "type": "number",
            "nomenclature": "-",
            "length": null,
            "format": "default",
            "dateCreated": "",
            "dateDeleted": "",
            "dateMissing": [],
            "observation": "",
            "regle_gestion": "",
            "type_oracle": "number"
        },
        {
            "name": "MNT_NN1_BR",
            "description": "Valorisation BR suppléments de néonat sans SI",
            "type": "number",
            "nomenclature": "-",
            "length": null,
            "format": "default",
            "dateCreated": "",
            "dateDeleted": "",
            "dateMissing": [],
            "observation": "",
            "regle_gestion": "",
            "type_oracle": "number"
        },
        {
            "name": "MNT_NN2_BR",
            "description": "Valorisation BR suppléments de néonat avec SI",
            "type": "number",
            "nomenclature": "-",
            "length": null,
            "format": "default",
            "dateCreated": "",
            "dateDeleted": "",
            "dateMissing": [],
            "observation": "",
            "regle_gestion": "",
            "type_oracle": "number"
        },
        {
            "name": "MNT_NN3_BR",
            "description": "Valorisation BR suppléments de réanimation néonat",
            "type": "number",
            "nomenclature": "-",
            "length": null,
            "format": "default",
            "dateCreated": "",
            "dateDeleted": "",
            "dateMissing": [],
            "observation": "",
            "regle_gestion": "",
            "type_oracle": "number"
        },
        {
            "name": "MNT_CAISSON_BR",
            "description": "Valorisation BR suppléments caisson hyperbare",
            "type": "number",
            "nomenclature": "-",
            "length": null,
            "format": "default",
            "dateCreated": "",
            "dateDeleted": "",
            "dateMissing": [],
            "observation": "",
            "regle_gestion": "",
            "type_oracle": "number"
        },
        {
            "name": "MNT_RAP_BR",
            "description": "Valorisation BR suppléments de radiothérapie pédiatrique",
            "type": "number",
            "nomenclature": "-",
            "length": null,
            "format": "default",
            "dateCreated": "",
            "dateDeleted": "",
            "dateMissing": [],
            "observation": "",
            "regle_gestion": "",
            "type_oracle": "number"
        },
        {
            "name": "MNT_ANT_BR",
            "description": "Valorisation BR suppléments antepartum",
            "type": "number",
            "nomenclature": "-",
            "length": null,
            "format": "default",
            "dateCreated": "",
            "dateDeleted": "",
            "dateMissing": [],
            "observation": "",
            "regle_gestion": "",
            "type_oracle": "number"
        },
        {
            "name": "NB_SDC",
            "description": "Nb suppléments défibrillateur cardiaque",
            "type": "number",
            "nomenclature": "-",
            "length": null,
            "format": "default",
            "dateCreated": "",
            "dateDeleted": "",
            "dateMissing": [],
            "observation": "",
            "regle_gestion": "",
            "type_oracle": "number"
        },
        {
            "name": "MNT_SDC_BR",
            "description": "Valorisation BR suppléments défibrillateur cardiaque",
            "type": "number",
            "nomenclature": "-",
            "length": null,
            "format": "default",
            "dateCreated": "",
            "dateDeleted": "",
            "dateMissing": [],
            "observation": "",
            "regle_gestion": "",
            "type_oracle": "number"
        },
        {
            "name": "MNT_SDC_AM",
            "description": "Valorisation AM suppléments défibrillateur cardiaque",
            "type": "number",
            "nomenclature": "-",
            "length": null,
            "format": "default",
            "dateCreated": "",
            "dateDeleted": "",
            "dateMissing": [],
            "observation": "",
            "regle_gestion": "",
            "type_oracle": "number"
        },
        {
            "name": "MNT_IVG_BR",
            "description": "Valorisation BR IVG",
            "type": "number",
            "nomenclature": "-",
            "length": null,
            "format": "default",
            "dateCreated": "",
            "dateDeleted": "",
            "dateMissing": [],
            "observation": "",
            "regle_gestion": "",
            "type_oracle": "number"
        },
        {
            "name": "MNT_TOT_BR",
            "description": "Valorisation totale BR du séjour.\nC’est la somme de : \nmnt_mon, mnt_dmi, mnt_med_atu, mnt_ghs, mnt_exinf, mnt_ghs50, mnt_exh, mnt_supphd, mnt_suppent1, mnt_suppent2, mnt_suppent3, mnt_dip, mnt_po1, mnt_po2, mnt_po3, mnt_po4, mnt_po5, mnt_po6, mnt_po7, mnt_po8, mnt_po9, mnt_poa,mnt_9610, mnt_9619, mnt_9620,  mnt_9621, mnt_9622, mnt_9623, mnt_9625, mnt_9631, mnt_9632, mnt_9633, mnt_9615, mnt_rap, mnt_ant, mnt_rea, mnt_rep, mnt_si, mnt_sc, mnt_nn1, mnt_nn2, mnt_nn3, mnt_caisson, mnt_ivg, mnt_sdc\nPour les séjours AME et SU, c’est la somme de: \nmnt_mon, mnt_dmi, mnt_med_atu, mnt_ghs, mnt_exinf, mnt_ghs50, mnt_exh, mnt_supphd, mnt_suppent1, mnt_suppent2, mnt_suppent3, mnt_dip, mnt_9610, mnt_9619, mnt_9620,  mnt_9621, mnt_9622, mnt_9623, mnt_9625, mnt_9631, mnt_9632, mnt_9633, mnt_9615, mnt_rap, mnt_ant, mnt_rea, mnt_rep, mnt_si, mnt_sc, mnt_nn1, mnt_nn2, mnt_nn3, mnt_caisson,mnt_tjp20e, mnt_fjse, mnt_sdc\n",
            "type": "number",
            "nomenclature": "-",
            "length": null,
            "format": "default",
            "dateCreated": "",
            "dateDeleted": "",
            "dateMissing": [],
            "observation": "",
            "regle_gestion": "",
            "type_oracle": "number"
        },
        {
            "name": "COEFREP",
            "description": "coefficient de reprise",
            "type": "number",
            "nomenclature": "-",
            "length": null,
            "format": "default",
            "dateCreated": "",
            "dateDeleted": "",
            "dateMissing": [],
            "observation": "",
            "regle_gestion": "",
            "type_oracle": "number"
        },
        {
            "name": "MNT_TJP20_AME",
            "description": "Valorisation 20% TJP (uniquement pour les séjours AME)",
            "type": "number",
            "length": "10",
            "dateCreated": "2012",
            "dateDeleted": "2013",
            "nomenclature": "-",
            "dateMissing": [],
            "format": "default",
            "observation": "",
            "regle_gestion": "",
            "type_oracle": "number"
        },
        {
            "name": "MNT_IVGFJS_AM",
            "description": "Valorisation Forfait Journalier de Sortie (uniquement pour les séjours AME)",
            "type": "number",
            "length": "10",
            "dateCreated": "2011",
            "dateDeleted": "2014",
            "nomenclature": "-",
            "dateMissing": [],
            "format": "default",
            "observation": "",
            "regle_gestion": "",
            "type_oracle": "number"
        },
        {
            "name": "NB_9611",
            "description": "Nombre d’actes menant dans le GHS 9611",
            "type": "number",
            "length": "5",
            "dateCreated": "2011",
            "dateDeleted": "2012",
            "nomenclature": "-",
            "dateMissing": [],
            "format": "default",
            "observation": "",
            "regle_gestion": "",
            "type_oracle": "number"
        },
        {
            "name": "GHSMIN",
            "description": "Nb séjours avec minoration forfaitaire liste en sus",
            "type": "number",
            "length": "5",
            "dateCreated": "2015",
            "dateDeleted": "",
            "nomenclature": "-",
            "dateMissing": [],
            "format": "default",
            "observation": "",
            "regle_gestion": "",
            "type_oracle": "number"
        },
        {
            "name": "MNT_9624_AM",
            "description": "Valorisation AM actes menant dans le GHS 9624",
            "type": "number",
            "length": "10",
            "dateCreated": "2011",
            "dateDeleted": "2013",
            "nomenclature": "-",
            "dateMissing": [],
            "format": "default",
            "observation": "",
            "regle_gestion": "",
            "type_oracle": "number"
        },
        {
            "name": "NB_9624",
            "description": "Nombre d’actes menant dans le GHS 9624",
            "type": "number",
            "length": "5",
            "dateCreated": "2011",
            "dateDeleted": "2013",
            "nomenclature": "-",
            "dateMissing": [],
            "format": "default",
            "observation": "",
            "regle_gestion": "",
            "type_oracle": "number"
        },
        {
            "name": "MNT_FJS_AME",
            "description": "Valorisation Forfait Journalier de Sortie (uniquement pour les séjours AME)",
            "type": "number",
            "length": "10",
            "dateCreated": "2012",
            "dateDeleted": "2013",
            "nomenclature": "-",
            "dateMissing": [],
            "format": "default",
            "observation": "",
            "regle_gestion": "",
            "type_oracle": "number"
        },
        {
            "name": "MNT_9612_AM",
            "description": "Valorisation AM actes menant dans le GHS 9612",
            "type": "number",
            "length": "10",
            "dateCreated": "2011",
            "dateDeleted": "2012",
            "nomenclature": "-",
            "dateMissing": [],
            "format": "default",
            "observation": "",
            "regle_gestion": "",
            "type_oracle": "number"
        },
        {
            "name": "MNT_9611_AM",
            "description": "Valorisation AM actes menant dans le GHS 9611",
            "type": "number",
            "length": "10",
            "dateCreated": "2011",
            "dateDeleted": "2012",
            "nomenclature": "-",
            "dateMissing": [],
            "format": "default",
            "observation": "",
            "regle_gestion": "",
            "type_oracle": "number"
        },
        {
            "name": "NB_9612",
            "description": "Nombre d’actes menant dans le GHS 9612",
            "type": "number",
            "length": "5",
            "dateCreated": "2011",
            "dateDeleted": "2012",
            "nomenclature": "-",
            "dateMissing": [],
            "format": "default",
            "observation": "",
            "regle_gestion": "",
            "type_oracle": "number"
        },
        {
            "name": "MNT_GHSMIN_AM",
            "description": "Valorisation AM des séjours avec minoration forfaitaire liste en sus",
            "type": "number",
            "length": "10,2",
            "dateCreated": "2015",
            "dateDeleted": "",
            "nomenclature": "-",
            "dateMissing": [],
            "format": "default",
            "observation": "",
            "regle_gestion": "",
            "type_oracle": "number"
        }
    ],
    "name": "T_MCOaa_nnVALO",
    "title": "Valorisation des séjours",
    "produit": "PMSI MCO",
    "missingValues": [
        ""
    ],
    "foreignKeys": [
        {
            "fields": [
                "ETA_NUM",
                "RSA_NUM"
            ],
            "reference": {
                "resource": "T_MCOaa_nnB",
                "fields": [
                    "ETA_NUM",
                    "RSA_NUM"
                ]
            }
        }
    ],
    "history": {
        "dateCreated": "2011",
        "dateDeleted": "",
        "dateMissing": []
    },
    "champ": "Public",
    "observation": ""
}