{
    "fields": [
        {
            "name": "ARO_ASU_NAT",
            "description": "Nature d'assurance (autre que régime obligatoire)",
            "type": "number",
            "nomenclature": "IR_ASU_V",
            "length": "3",
            "format": "default",
            "dateCreated": "2006",
            "dateDeleted": "",
            "dateMissing": [],
            "observation": "",
            "regle_gestion": "La ligne de prestation contient des informations concernant le remboursement de la part complémentaire (autre que le régime obligatoire)",
            "type_oracle": "number"
        },
        {
            "name": "ARO_CPL_COD",
            "description": "Complément d'acte (autre que régime obligatoire)",
            "type": "number",
            "nomenclature": "IR_CPA_V",
            "length": "2",
            "format": "default",
            "dateCreated": "2006",
            "dateDeleted": "",
            "dateMissing": [],
            "observation": "",
            "regle_gestion": "La ligne de prestation contient des informations concernant le remboursement de la part complémentaire (autre que le régime obligatoire)",
            "type_oracle": "number"
        },
        {
            "name": "ARO_ENV_TYP",
            "description": "Type d'enveloppe (autre que régime obligatoire)",
            "type": "number",
            "nomenclature": "IR_ENV_V",
            "length": "3",
            "format": "default",
            "dateCreated": "2006",
            "dateDeleted": "",
            "dateMissing": [],
            "observation": "",
            "regle_gestion": "La ligne de prestation contient des informations concernant le remboursement de la part complémentaire (autre que le régime obligatoire)",
            "type_oracle": "number"
        },
        {
            "name": "ARO_FJH_TYP",
            "description": "Type de prise en charge du forfait Journalier (autre que régime obligatoire)",
            "type": "number",
            "nomenclature": "IR_FJH_V",
            "length": "2",
            "format": "default",
            "dateCreated": "2006",
            "dateDeleted": "",
            "dateMissing": [],
            "observation": "",
            "regle_gestion": "La ligne de prestation contient des informations concernant le remboursement de la part complémentaire (autre que le régime obligatoire)",
            "type_oracle": "number"
        },
        {
            "name": "ARO_FTA_COD",
            "description": "Code forçage du taux (hors parcours de soins) autre que régime obligatoire",
            "type": "number",
            "nomenclature": "IR_FOR_V",
            "length": "2",
            "format": "default",
            "dateCreated": "2006",
            "dateDeleted": "",
            "dateMissing": [],
            "observation": "",
            "regle_gestion": "La ligne de prestation contient des informations concernant le remboursement de la part complémentaire (autre que le régime obligatoire)",
            "type_oracle": "number"
        },
        {
            "name": "ARO_MIN_TAU",
            "description": "Taux modulé (hors parcours de Soins) du remboursement (autre que régime obligatoire)",
            "type": "number",
            "nomenclature": "-",
            "length": "7,2",
            "format": "default",
            "dateCreated": "2006",
            "dateDeleted": "",
            "dateMissing": [],
            "observation": "",
            "regle_gestion": "La ligne de prestation contient des informations concernant le remboursement de la part complémentaire (autre que le régime obligatoire)",
            "type_oracle": "number"
        },
        {
            "name": "ARO_MOD_MNT",
            "description": "Montant de la majoration de la participation de l'assuré (autre que régime obligatoire)",
            "type": "number",
            "nomenclature": "-",
            "length": "11,2",
            "format": "default",
            "dateCreated": "2006",
            "dateDeleted": "",
            "dateMissing": [],
            "observation": "",
            "regle_gestion": "La ligne de prestation contient des informations concernant le remboursement de la part complémentaire (autre que le régime obligatoire)",
            "type_oracle": "number"
        },
        {
            "name": "ARO_ORD_NUM",
            "description": "Numéro d'ordre du remboursement autre que régime obligatoire",
            "type": "number",
            "nomenclature": "-",
            "length": "3",
            "format": "default",
            "dateCreated": "2006",
            "dateDeleted": "",
            "dateMissing": [],
            "observation": "",
            "regle_gestion": "La ligne de prestation contient des informations concernant le remboursement de la part complémentaire (autre que le régime obligatoire)",
            "type_oracle": "number"
        },
        {
            "name": "ARO_PRS_NAT",
            "description": "Nature de la prestation (autre que régime obligatoire)",
            "type": "number",
            "nomenclature": "IR_NAT_V",
            "length": "5",
            "format": "default",
            "dateCreated": "2006",
            "dateDeleted": "",
            "dateMissing": [],
            "observation": "",
            "regle_gestion": "La ligne de prestation contient des informations concernant le remboursement de la part complémentaire (autre que le régime obligatoire)",
            "type_oracle": "number"
        },
        {
            "name": "ARO_REM_BSE",
            "description": "Base de remboursement (autre que régime obligatoire)",
            "type": "number",
            "nomenclature": "-",
            "length": "11,2",
            "format": "default",
            "dateCreated": "2006",
            "dateDeleted": "",
            "dateMissing": [],
            "observation": "",
            "regle_gestion": "La ligne de prestation contient des informations concernant le remboursement de la part complémentaire (autre que le régime obligatoire)",
            "type_oracle": "number"
        },
        {
            "name": "ARO_REM_MNT",
            "description": "Montant versé-remboursé (autre que régime obligatoire)",
            "type": "number",
            "nomenclature": "-",
            "length": "11,2",
            "format": "default",
            "dateCreated": "2006",
            "dateDeleted": "",
            "dateMissing": [],
            "observation": "",
            "regle_gestion": "La ligne de prestation contient des informations concernant le remboursement de la part complémentaire (autre que le régime obligatoire)",
            "type_oracle": "number"
        },
        {
            "name": "ARO_REM_PRU",
            "description": "Prix unitaire de l'acte (autre que régime obligatoire)",
            "type": "number",
            "nomenclature": "-",
            "length": "14,5",
            "format": "default",
            "dateCreated": "2006",
            "dateDeleted": "",
            "dateMissing": [],
            "observation": "",
            "regle_gestion": "La ligne de prestation contient des informations concernant le remboursement de la part complémentaire (autre que le régime obligatoire)",
            "type_oracle": "number"
        },
        {
            "name": "ARO_REM_SGN",
            "description": "Signe du remboursement (autre que régime obligatoire)",
            "type": "number",
            "nomenclature": "IR_SGN_V",
            "length": "2",
            "format": "default",
            "dateCreated": "2006",
            "dateDeleted": "",
            "dateMissing": [],
            "observation": "",
            "regle_gestion": "La ligne de prestation contient des informations concernant le remboursement de la part complémentaire (autre que le régime obligatoire)",
            "type_oracle": "number"
        },
        {
            "name": "ARO_REM_TAU",
            "description": "Taux réel de remboursement (autre que régime obligatoire)",
            "type": "number",
            "nomenclature": "IR_TAU_V",
            "length": "7,2",
            "format": "default",
            "dateCreated": "2006",
            "dateDeleted": "",
            "dateMissing": [],
            "observation": "",
            "regle_gestion": "La ligne de prestation contient des informations concernant le remboursement de la part complémentaire (autre que le régime obligatoire)",
            "type_oracle": "number"
        },
        {
            "name": "ARO_REM_TYP",
            "description": "Type de remboursement (autre que régime obligatoire)",
            "type": "number",
            "nomenclature": "IR_TYR_V",
            "length": "3",
            "format": "default",
            "dateCreated": "2006",
            "dateDeleted": "",
            "dateMissing": [],
            "observation": "",
            "regle_gestion": "La ligne de prestation contient des informations concernant le remboursement de la part complémentaire (autre que le régime obligatoire)",
            "type_oracle": "number"
        },
        {
            "name": "ARO_THE_TAU",
            "description": "Taux théorique de remboursement",
            "type": "number",
            "nomenclature": "IR_TAU_V",
            "length": "5",
            "format": "default",
            "dateCreated": "2006",
            "dateDeleted": "",
            "dateMissing": [],
            "observation": "",
            "regle_gestion": "",
            "type_oracle": "number"
        },
        {
            "name": "ORG_CLE_NEW",
            "description": "Code de l'organisme de liquidation",
            "type": "string",
            "nomenclature": "IR_ORG_V",
            "length": "9",
            "format": "default",
            "dateCreated": "2006",
            "dateDeleted": "",
            "dateMissing": [],
            "observation": "",
            "regle_gestion": "",
            "type_oracle": "string"
        },
        {
            "name": "DCT_ORD_NUM",
            "description": "N° ordre décompte dans caisse                      1",
            "type": "number",
            "nomenclature": "-",
            "length": "8",
            "format": "default",
            "dateCreated": "2006",
            "dateDeleted": "",
            "dateMissing": [],
            "observation": "",
            "regle_gestion": "",
            "type_oracle": "number"
        },
        {
            "name": "FLX_DIS_DTD",
            "description": "Date de mise à disposition des données",
            "type": "date",
            "nomenclature": "IR_DTE_V",
            "length": "8",
            "format": "default",
            "dateCreated": "2006",
            "dateDeleted": "",
            "dateMissing": [],
            "observation": "",
            "regle_gestion": "",
            "type_oracle": "date"
        },
        {
            "name": "FLX_EMT_NUM",
            "description": "numéro d'émetteur du flux",
            "type": "number",
            "nomenclature": "IR_NEM_T",
            "length": "4",
            "format": "default",
            "dateCreated": "2006",
            "dateDeleted": "",
            "dateMissing": [],
            "observation": "",
            "regle_gestion": "",
            "type_oracle": "number"
        },
        {
            "name": "FLX_EMT_ORD",
            "description": "numéro de séquence du flux",
            "type": "number",
            "nomenclature": "-",
            "length": "4",
            "format": "default",
            "dateCreated": "2006",
            "dateDeleted": "",
            "dateMissing": [],
            "observation": "",
            "regle_gestion": "",
            "type_oracle": "number"
        },
        {
            "name": "FLX_EMT_TYP",
            "description": "Type d'émetteur",
            "type": "number",
            "nomenclature": "IR_TYT_V",
            "length": "2",
            "format": "default",
            "dateCreated": "2006",
            "dateDeleted": "",
            "dateMissing": [],
            "observation": "",
            "regle_gestion": "",
            "type_oracle": "number"
        },
        {
            "name": "FLX_TRT_DTD",
            "description": "Date d'entrée des données dans le système d'information",
            "type": "date",
            "nomenclature": "IR_DTE_V",
            "length": "8",
            "format": "default",
            "dateCreated": "2006",
            "dateDeleted": "",
            "dateMissing": [],
            "observation": "",
            "regle_gestion": "",
            "type_oracle": "date"
        },
        {
            "name": "ORG_CLE_NUM",
            "description": "organisme de liquidation des prestations (avant fusion des caisses)",
            "type": "string",
            "nomenclature": "IR_ORG_V",
            "length": "9",
            "format": "default",
            "dateCreated": "2006",
            "dateDeleted": "",
            "dateMissing": [],
            "observation": "",
            "regle_gestion": "",
            "type_oracle": "string"
        },
        {
            "name": "PRS_ORD_NUM",
            "description": "Numéro d'ordre de la prestation dans le décompte",
            "type": "number",
            "nomenclature": "-",
            "length": "5",
            "format": "default",
            "dateCreated": "2006",
            "dateDeleted": "",
            "dateMissing": [],
            "observation": "",
            "regle_gestion": "",
            "type_oracle": "number"
        },
        {
            "name": "REM_TYP_AFF",
            "description": "type de remboursement affiné",
            "type": "number",
            "nomenclature": "-",
            "length": "8",
            "format": "default",
            "dateCreated": "2006",
            "dateDeleted": "",
            "dateMissing": [],
            "observation": "",
            "regle_gestion": "",
            "type_oracle": "number"
        }
    ],
    "name": "ER_ARO_F",
    "title": "Table des données de remboursements complémentaires",
    "produit": "DCIR",
    "missingValues": [
        ""
    ],
    "foreignKeys": [
        {
            "fields": [
                "DCT_ORD_NUM",
                "FLX_DIS_DTD",
                "FLX_EMT_NUM",
                "FLX_EMT_ORD",
                "FLX_EMT_TYP",
                "FLX_TRT_DTD",
                "ORG_CLE_NUM",
                "PRS_ORD_NUM",
                "REM_TYP_AFF"
            ],
            "reference": {
                "resource": "ER_PRS_F",
                "fields": [
                    "DCT_ORD_NUM",
                    "FLX_DIS_DTD",
                    "FLX_EMT_NUM",
                    "FLX_EMT_ORD",
                    "FLX_EMT_TYP",
                    "FLX_TRT_DTD",
                    "ORG_CLE_NUM",
                    "PRS_ORD_NUM",
                    "REM_TYP_AFF"
                ]
            }
        }
    ],
    "history": {
        "dateCreated": "",
        "dateDeleted": "",
        "dateMissing": []
    },
    "champ": "",
    "observation": ""
}